Introduction to Programming
…
This tutorial

This cheat seet

Thematic maps with ggplot2

Data Transformation with dplyr

Introduction to dplyr

All the data we used in the previous lecture were extremely well shaped

mpg

## # A tibble: 234 x 11
##    manufacturer model    displ  year   cyl trans   drv     cty   hwy fl   
##    <chr>        <chr>    <dbl> <int> <int> <chr>   <chr> <int> <int> <chr>
##  1 audi         a4        1.80  1999     4 auto(l f        18    29 p    
##  2 audi         a4        1.80  1999     4 manual f        21    29 p    
##  3 audi         a4        2.00  2008     4 manual f        20    31 p    
##  4 audi         a4        2.00  2008     4 auto(a f        21    30 p    
##  5 audi         a4        2.80  1999     6 auto(l f        16    26 p    
##  6 audi         a4        2.80  1999     6 manual f        18    26 p    
##  7 audi         a4        3.10  2008     6 auto(a f        18    27 p    
##  8 audi         a4 quat  1.80  1999     4 manual 4        18    26 p    
##  9 audi         a4 quat  1.80  1999     4 auto(l 4        16    25 p    
## 10 audi         a4 quat  2.00  2008     4 manual 4        20    28 p    
## # ... with 224 more rows, and 1 more variable: class <chr>
…
dyplr provides functions that are much more efficient and intuitive than the base R ones

Getting started

Explore the basics of data manipulation witht the nycflights13 data set

library(tidyverse)
library(nycflights13)

flights

## # A tibble: 336,776 x 19
##     year month   day dep_time sched_dep_time dep_delay arr_time
##    <int> <int> <int>    <int>          <int>     <dbl>    <int>
##  1  2013     1     1      517            515        2.      830
##  2  2013     1     1      533            529        4.      850
##  3  2013     1     1      542            540        2.      923
##  4  2013     1     1      544            545       -1.     1004
##  5  2013     1     1      554            600       -6.      812
##  6  2013     1     1      554            558       -4.      740
##  7  2013     1     1      555            600       -5.      913
##  8  2013     1     1      557            600       -3.      709
##  9  2013     1     1      557            600       -3.      838
## 10  2013     1     1      558            600       -2.      753
## # ... with 336,766 more rows, and 12 more variables: sched_arr_time <int>,
## #   arr_delay <dbl>, carrier <chr>, flight <int>, tailnum <chr>,
## #   origin <chr>, dest <chr>, air_time <dbl>, distance <dbl>, hour <dbl>,
## #   minute <dbl>, time_hour <dttm>
…
new_data <- <dyplr_function>(<raw_data>, <names_of_the_variables_to_work_with>...)

Filter

Filter rows with filter()

filter(): subset observations based on their values

Uses logicals to select the observations, and returns a new tibble (i.e., no modification in place)

# select all flights on January 1st
filter(flights, month == 1, day == 1)

## # A tibble: 842 x 19
##     year month   day dep_time sched_dep_time dep_delay arr_time
##    <int> <int> <int>    <int>          <int>     <dbl>    <int>
##  1  2013     1     1      517            515        2.      830
##  2  2013     1     1      533            529        4.      850
##  3  2013     1     1      542            540        2.      923
##  4  2013     1     1      544            545       -1.     1004
##  5  2013     1     1      554            600       -6.      812
##  6  2013     1     1      554            558       -4.      740
##  7  2013     1     1      555            600       -5.      913
##  8  2013     1     1      557            600       -3.      709
##  9  2013     1     1      557            600       -3.      838
## 10  2013     1     1      558            600       -2.      753
## # ... with 832 more rows, and 12 more variables: sched_arr_time <int>,
## #   arr_delay <dbl>, carrier <chr>, flight <int>, tailnum <chr>,
## #   origin <chr>, dest <chr>, air_time <dbl>, distance <dbl>, hour <dbl>,
## #   minute <dbl>, time_hour <dttm>
…
If want to use \(\cup\) or more complicated structure, hardcode it

filter(flights, month == 11, month == 12)

## # A tibble: 0 x 19
## # ... with 19 variables: year <int>, month <int>, day <int>,
## #   dep_time <int>, sched_dep_time <int>, dep_delay <dbl>, arr_time <int>,
## #   sched_arr_time <int>, arr_delay <dbl>, carrier <chr>, flight <int>,
## #   tailnum <chr>, origin <chr>, dest <chr>, air_time <dbl>,
## #   distance <dbl>, hour <dbl>, minute <dbl>, time_hour <dttm>

# flights that departed in November or December! 
filter(flights, month == 11 | month == 12)

## # A tibble: 55,403 x 19
##     year month   day dep_time sched_dep_time dep_delay arr_time
##    <int> <int> <int>    <int>          <int>     <dbl>    <int>
##  1  2013    11     1        5           2359        6.      352
##  2  2013    11     1       35           2250      105.      123
##  3  2013    11     1      455            500       -5.      641
##  4  2013    11     1      539            545       -6.      856
##  5  2013    11     1      542            545       -3.      831
##  6  2013    11     1      549            600      -11.      912
##  7  2013    11     1      550            600      -10.      705
##  8  2013    11     1      554            600       -6.      659
##  9  2013    11     1      554            600       -6.      826
## 10  2013    11     1      554            600       -6.      749
## # ... with 55,393 more rows, and 12 more variables: sched_arr_time <int>,
## #   arr_delay <dbl>, carrier <chr>, flight <int>, tailnum <chr>,
## #   origin <chr>, dest <chr>, air_time <dbl>, distance <dbl>, hour <dbl>,
## #   minute <dbl>, time_hour <dttm>

filter() & variables

In the previous example, had to restate twice month: month == 11 | month == 12

Shortcut: %in% command

# equivalent to month %in% c(10,11,12)
filter(flights, month %in% 10:12)

## # A tibble: 84,292 x 19
##     year month   day dep_time sched_dep_time dep_delay arr_time
##    <int> <int> <int>    <int>          <int>     <dbl>    <int>
##  1  2013    10     1      447            500      -13.      614
##  2  2013    10     1      522            517        5.      735
##  3  2013    10     1      536            545       -9.      809
##  4  2013    10     1      539            545       -6.      801
##  5  2013    10     1      539            545       -6.      917
##  6  2013    10     1      544            550       -6.      912
##  7  2013    10     1      549            600      -11.      653
##  8  2013    10     1      550            600      -10.      648
##  9  2013    10     1      550            600      -10.      649
## 10  2013    10     1      551            600       -9.      727
## # ... with 84,282 more rows, and 12 more variables: sched_arr_time <int>,
## #   arr_delay <dbl>, carrier <chr>, flight <int>, tailnum <chr>,
## #   origin <chr>, dest <chr>, air_time <dbl>, distance <dbl>, hour <dbl>,
## #   minute <dbl>, time_hour <dttm>
…
Arrange rows

Arrange rows with arrange

arrange() change the order of the rows

Can order by one or multiple columns (then the order matters!)

By default: ascending orders. Use desc() to reorder in descending order

# arrange the data by year, then month, then day
arrange(flights, year, month, day)

## # A tibble: 336,776 x 19
##     year month   day dep_time sched_dep_time dep_delay arr_time
##    <int> <int> <int>    <int>          <int>     <dbl>    <int>
##  1  2013     1     1      517            515        2.      830
##  2  2013     1     1      533            529        4.      850
##  3  2013     1     1      542            540        2.      923
##  4  2013     1     1      544            545       -1.     1004
##  5  2013     1     1      554            600       -6.      812
##  6  2013     1     1      554            558       -4.      740
##  7  2013     1     1      555            600       -5.      913
##  8  2013     1     1      557            600       -3.      709
##  9  2013     1     1      557            600       -3.      838
## 10  2013     1     1      558            600       -2.      753
## # ... with 336,766 more rows, and 12 more variables: sched_arr_time <int>,
## #   arr_delay <dbl>, carrier <chr>, flight <int>, tailnum <chr>,
## #   origin <chr>, dest <chr>, air_time <dbl>, distance <dbl>, hour <dbl>,
## #   minute <dbl>, time_hour <dttm>
…
Select columns

Selecting columns with select()

select: zoom in on a subset of variables in the dataset

select(flights, year, month, day)

## # A tibble: 336,776 x 3
##     year month   day
##    <int> <int> <int>
##  1  2013     1     1
##  2  2013     1     1
##  3  2013     1     1
##  4  2013     1     1
##  5  2013     1     1
##  6  2013     1     1
##  7  2013     1     1
##  8  2013     1     1
##  9  2013     1     1
## 10  2013     1     1
## # ... with 336,766 more rows
…
rename(<data>, <new_var_name> = <current_var_name>)

Add new variables

Adding new variables with mutate()

mutate() adds new columns at the end of the dataset

# first subsetting so that we can see all the variables 
flights_small <- select(flights, year:day, ends_with("delay"), distance, air_time)
mutate(flights_small, 
       gain = arr_delay - dep_delay, 
       speed = distance / air_time * 60)

## # A tibble: 336,776 x 9
##     year month   day dep_delay arr_delay distance air_time  gain speed
##    <int> <int> <int>     <dbl>     <dbl>    <dbl>    <dbl> <dbl> <dbl>
##  1  2013     1     1        2.       11.    1400.     227.    9.  370.
##  2  2013     1     1        4.       20.    1416.     227.   16.  374.
##  3  2013     1     1        2.       33.    1089.     160.   31.  408.
##  4  2013     1     1       -1.      -18.    1576.     183.  -17.  517.
##  5  2013     1     1       -6.      -25.     762.     116.  -19.  394.
##  6  2013     1     1       -4.       12.     719.     150.   16.  288.
##  7  2013     1     1       -5.       19.    1065.     158.   24.  404.
##  8  2013     1     1       -3.      -14.     229.      53.  -11.  259.
##  9  2013     1     1       -3.       -8.     944.     140.   -5.  405.
## 10  2013     1     1       -2.        8.     733.     138.   10.  319.
## # ... with 336,766 more rows
…
